{
  "stringTable": {
    "0": "C:/Users/lch/StudioProjects/mobnetstat.git/android/app/.cxx/cmake/profile/arm64-v8a",
    "1": "--target=aarch64-none-linux-android21 --gcc-toolchain=C:/Users/lch/AppData/Local/Android/Sdk/ndk/21.1.6352462/toolchains/llvm/prebuilt/windows-x86_64 --sysroot=C:/Users/lch/AppData/Local/Android/Sdk/ndk/21.1.6352462/toolchains/llvm/prebuilt/windows-x86_64/sysroot -Dclient_EXPORTS -g -DANDROID -fdata-sections -ffunction-sections -funwind-tables -fstack-protector-strong -no-canonical-prefixes -D_FORTIFY_SOURCE=2 -Wformat -Werror=format-security -O0 -fno-limit-debug-info -fPIC"
  },
  "buildFiles": [
    "C:\\Users\\lch\\StudioProjects\\mobnetstat.git\\android\\app\\CMakeLists.txt",
    "C:\\Users\\lch\\AppData\\Local\\Android\\Sdk\\ndk\\21.1.6352462\\build\\cmake\\android.toolchain.cmake",
    "C:\\Users\\lch\\AppData\\Local\\Android\\Sdk\\ndk\\21.1.6352462\\build\\cmake\\platforms.cmake"
  ],
  "cleanCommands": [
    "C:\\Users\\lch\\AppData\\Local\\Android\\sdk\\cmake\\3.10.2.4988404\\bin\\ninja.exe -C \"C:\\Users\\lch\\StudioProjects\\mobnetstat.git\\android\\app\\.cxx\\cmake\\profile\\arm64-v8a\" clean"
  ],
  "buildTargetsCommand": "C:\\Users\\lch\\AppData\\Local\\Android\\sdk\\cmake\\3.10.2.4988404\\bin\\ninja.exe  -C \"C:\\Users\\lch\\StudioProjects\\mobnetstat.git\\android\\app\\.cxx\\cmake\\profile\\arm64-v8a\" {LIST_OF_TARGETS_TO_BUILD}",
  "libraries": {
    "client-Debug-arm64-v8a": {
      "buildCommand": "C:\\Users\\lch\\AppData\\Local\\Android\\sdk\\cmake\\3.10.2.4988404\\bin\\ninja.exe -C \"C:\\Users\\lch\\StudioProjects\\mobnetstat.git\\android\\app\\.cxx\\cmake\\profile\\arm64-v8a\" client",
      "buildType": "debug",
      "toolchain": "1379639981",
      "abi": "arm64-v8a",
      "artifactName": "client",
      "files": [
        {
          "src": "C:\\Users\\lch\\StudioProjects\\mobnetstat.git\\src\\client.c",
          "flagsOrdinal": 1,
          "workingDirectoryOrdinal": 0
        }
      ],
      "headers": [],
      "output": "C:\\Users\\lch\\StudioProjects\\mobnetstat.git\\build\\app\\intermediates\\cmake\\profile\\obj\\arm64-v8a\\libclient.so",
      "runtimeFiles": []
    }
  },
  "toolchains": {
    "1379639981": {
      "cCompilerExecutable": "C:\\Users\\lch\\AppData\\Local\\Android\\Sdk\\ndk\\21.1.6352462\\toolchains\\llvm\\prebuilt\\windows-x86_64\\bin\\clang.exe"
    }
  },
  "cFileExtensions": [
    "c"
  ],
  "cppFileExtensions": []
}