{
  "abi": "X86",
  "abiPlatformVersion": 16,
  "buildSettings": {
    "environmentVariables": []
  },
  "cmake": {
    "cmakeArtifactsBaseFolder": "C:\\Users\\lch\\StudioProjects\\mobnetstat.git\\android\\app\\.cxx\\cmake\\profile\\x86",
    "cmakeServerLogFile": "C:\\Users\\lch\\StudioProjects\\mobnetstat.git\\android\\app\\.cxx\\cmake\\profile\\x86\\cmake_server_log.txt",
    "cmakeWrappingBaseFolder": "C:\\Users\\lch\\StudioProjects\\mobnetstat.git\\android\\app\\.cxx\\cxx\\profile\\x86",
    "effectiveConfiguration": {
      "name": "traditional-android-studio-cmake-environment",
      "description": "Composite reified CMakeSettings configuration",
      "generator": "Ninja",
      "inheritEnvironments": [
        "ndk"
      ],
      "buildRoot": "C:\\Users\\lch\\StudioProjects\\mobnetstat.git\\android\\app\\.cxx\\cmake\\profile\\x86",
      "cmakeToolchain": "C:\\Users\\lch\\AppData\\Local\\Android\\sdk\\ndk\\21.1.6352462\\build\\cmake\\android.toolchain.cmake",
      "cmakeExecutable": "C:\\Users\\lch\\AppData\\Local\\Android\\sdk\\cmake\\3.10.2.4988404\\bin\\cmake.exe",
      "variables": [
        {
          "name": "CMAKE_FIND_ROOT_PATH",
          "value": "C:\\Users\\lch\\StudioProjects\\mobnetstat.git\\android\\app\\.cxx\\cmake\\profile\\prefab\\x86\\prefab"
        },
        {
          "name": "CMAKE_BUILD_TYPE",
          "value": "Debug"
        },
        {
          "name": "CMAKE_TOOLCHAIN_FILE",
          "value": "C:\\Users\\lch\\AppData\\Local\\Android\\sdk\\ndk\\21.1.6352462\\build\\cmake\\android.toolchain.cmake"
        },
        {
          "name": "ANDROID_ABI",
          "value": "x86"
        },
        {
          "name": "ANDROID_NDK",
          "value": "C:\\Users\\lch\\AppData\\Local\\Android\\sdk\\ndk\\21.1.6352462"
        },
        {
          "name": "ANDROID_PLATFORM",
          "value": "android-16"
        },
        {
          "name": "CMAKE_ANDROID_ARCH_ABI",
          "value": "x86"
        },
        {
          "name": "CMAKE_ANDROID_NDK",
          "value": "C:\\Users\\lch\\AppData\\Local\\Android\\sdk\\ndk\\21.1.6352462"
        },
        {
          "name": "CMAKE_EXPORT_COMPILE_COMMANDS",
          "value": "ON"
        },
        {
          "name": "CMAKE_LIBRARY_OUTPUT_DIRECTORY",
          "value": "C:\\Users\\lch\\StudioProjects\\mobnetstat.git\\build\\app\\intermediates\\cmake\\profile\\obj\\x86"
        },
        {
          "name": "CMAKE_MAKE_PROGRAM",
          "value": "C:\\Users\\lch\\AppData\\Local\\Android\\sdk\\cmake\\3.10.2.4988404\\bin\\ninja.exe"
        },
        {
          "name": "CMAKE_SYSTEM_NAME",
          "value": "Android"
        },
        {
          "name": "CMAKE_SYSTEM_VERSION",
          "value": "16"
        }
      ]
    }
  },
  "cxxBuildFolder": "C:\\Users\\lch\\StudioProjects\\mobnetstat.git\\android\\app\\.cxx\\cmake\\profile\\x86",
  "info": {
    "abi": "X86",
    "bitness": 32,
    "deprecated": false,
    "default": true
  },
  "originalCxxBuildFolder": "C:\\Users\\lch\\StudioProjects\\mobnetstat.git\\android\\app\\.cxx\\cmake\\profile\\x86",
  "variant": {
    "buildSystemArgumentList": [],
    "buildTargetSet": [],
    "implicitBuildTargetSet": [],
    "cFlagsList": [],
    "cmakeSettingsConfiguration": "android-gradle-plugin-predetermined-name",
    "cppFlagsList": [],
    "isDebuggableEnabled": true,
    "module": {
      "buildSystem": "CMAKE",
      "cmake": {
        "cmakeExe": "C:\\Users\\lch\\AppData\\Local\\Android\\sdk\\cmake\\3.10.2.4988404\\bin\\cmake.exe",
        "minimumCmakeVersion": "3.10.2",
        "ninjaExe": "C:\\Users\\lch\\AppData\\Local\\Android\\sdk\\cmake\\3.10.2.4988404\\bin\\ninja.exe"
      },
      "cmakeToolchainFile": "C:\\Users\\lch\\AppData\\Local\\Android\\sdk\\ndk\\21.1.6352462\\build\\cmake\\android.toolchain.cmake",
      "cxxFolder": "C:\\Users\\lch\\StudioProjects\\mobnetstat.git\\android\\app\\.cxx",
      "gradleModulePathName": ":app",
      "intermediatesFolder": "C:\\Users\\lch\\StudioProjects\\mobnetstat.git\\build\\app\\intermediates",
      "makeFile": "C:\\Users\\lch\\StudioProjects\\mobnetstat.git\\android\\app\\CMakeLists.txt",
      "moduleBuildFile": "C:\\Users\\lch\\StudioProjects\\mobnetstat.git\\android\\app\\build.gradle",
      "moduleRootFolder": "C:\\Users\\lch\\StudioProjects\\mobnetstat.git\\android\\app",
      "ndkDefaultAbiList": [
        "ARMEABI_V7A",
        "ARM64_V8A",
        "X86",
        "X86_64"
      ],
      "ndkFolder": "C:\\Users\\lch\\AppData\\Local\\Android\\sdk\\ndk\\21.1.6352462",
      "ndkMetaAbiList": [
        {
          "abi": "ARMEABI_V7A",
          "bitness": 32,
          "deprecated": false,
          "default": true
        },
        {
          "abi": "ARM64_V8A",
          "bitness": 64,
          "deprecated": false,
          "default": true
        },
        {
          "abi": "X86",
          "bitness": 32,
          "deprecated": false,
          "default": true
        },
        {
          "abi": "X86_64",
          "bitness": 64,
          "deprecated": false,
          "default": true
        }
      ],
      "ndkMetaPlatforms": {
        "min": 16,
        "max": 29,
        "aliases": {
          "20": 19,
          "25": 24,
          "J": 16,
          "J-MR1": 17,
          "J-MR2": 18,
          "K": 19,
          "L": 21,
          "L-MR1": 22,
          "M": 23,
          "N": 24,
          "N-MR1": 24,
          "O": 26,
          "O-MR1": 27,
          "P": 28,
          "Q": 29
        }
      },
      "ndkSupportedAbiList": [
        "ARMEABI_V7A",
        "ARM64_V8A",
        "X86",
        "X86_64"
      ],
      "ndkDefaultStl": "LIBCXX_STATIC",
      "ndkVersion": "21.1.6352462",
      "project": {
        "compilerSettingsCacheFolder": "C:\\Users\\lch\\StudioProjects\\mobnetstat.git\\android\\.cxx",
        "cxxFolder": "C:\\Users\\lch\\StudioProjects\\mobnetstat.git\\android\\.cxx",
        "isBuildOnlyTargetAbiEnabled": true,
        "isCmakeBuildCohabitationEnabled": false,
        "isNativeCompilerSettingsCacheEnabled": false,
        "rootBuildGradleFolder": "C:\\Users\\lch\\StudioProjects\\mobnetstat.git\\android",
        "sdkFolder": "C:\\Users\\lch\\AppData\\Local\\Android\\sdk",
        "isPrefabEnabled": false
      },
      "splitsAbiFilterSet": [],
      "stlSharedObjectMap": {
        "LIBCXX_SHARED": {
          "ARMEABI_V7A": "C:\\Users\\lch\\AppData\\Local\\Android\\sdk\\ndk\\21.1.6352462\\toolchains\\llvm\\prebuilt\\windows-x86_64\\sysroot\\usr\\lib\\arm-linux-androideabi\\libc++_shared.so",
          "ARM64_V8A": "C:\\Users\\lch\\AppData\\Local\\Android\\sdk\\ndk\\21.1.6352462\\toolchains\\llvm\\prebuilt\\windows-x86_64\\sysroot\\usr\\lib\\aarch64-linux-android\\libc++_shared.so",
          "X86": "C:\\Users\\lch\\AppData\\Local\\Android\\sdk\\ndk\\21.1.6352462\\toolchains\\llvm\\prebuilt\\windows-x86_64\\sysroot\\usr\\lib\\i686-linux-android\\libc++_shared.so",
          "X86_64": "C:\\Users\\lch\\AppData\\Local\\Android\\sdk\\ndk\\21.1.6352462\\toolchains\\llvm\\prebuilt\\windows-x86_64\\sysroot\\usr\\lib\\x86_64-linux-android\\libc++_shared.so"
        },
        "LIBCXX_STATIC": {},
        "NONE": {},
        "SYSTEM": {}
      }
    },
    "objFolder": "C:\\Users\\lch\\StudioProjects\\mobnetstat.git\\build\\app\\intermediates\\cmake\\profile\\obj",
    "variantName": "profile",
    "validAbiList": [
      "ARMEABI_V7A",
      "ARM64_V8A",
      "X86",
      "X86_64"
    ],
    "prefabDirectory": "C:\\Users\\lch\\StudioProjects\\mobnetstat.git\\android\\app\\.cxx\\cmake\\profile\\prefab",
    "prefabPackageDirectoryList": []
  },
  "prefabFolder": "C:\\Users\\lch\\StudioProjects\\mobnetstat.git\\android\\app\\.cxx\\cmake\\profile\\prefab\\x86"
}