[
{
  "directory": "C:/Users/lch/StudioProjects/mobnetstat.git/android/app/.cxx/cmake/profile/armeabi-v7a",
  "command": "C:\\Users\\lch\\AppData\\Local\\Android\\Sdk\\ndk\\21.1.6352462\\toolchains\\llvm\\prebuilt\\windows-x86_64\\bin\\clang.exe --target=armv7-none-linux-androideabi16 --gcc-toolchain=C:/Users/lch/AppData/Local/Android/Sdk/ndk/21.1.6352462/toolchains/llvm/prebuilt/windows-x86_64 --sysroot=C:/Users/lch/AppData/Local/Android/Sdk/ndk/21.1.6352462/toolchains/llvm/prebuilt/windows-x86_64/sysroot -Dclient_EXPORTS  -g -DANDROID -fdata-sections -ffunction-sections -funwind-tables -fstack-protector-strong -no-canonical-prefixes -D_FORTIFY_SOURCE=2 -march=armv7-a -mthumb -Wformat -Werror=format-security  -O0 -fno-limit-debug-info  -fPIC   -o CMakeFiles\\client.dir\\C_\\Users\\lch\\StudioProjects\\mobnetstat.git\\src\\client.c.o   -c C:\\Users\\lch\\StudioProjects\\mobnetstat.git\\src\\client.c",
  "file": "C:\\Users\\lch\\StudioProjects\\mobnetstat.git\\src\\client.c"
}
]