-- Merging decision tree log ---
application
INJECTED from C:\Users\lch\StudioProjects\mobnetstat.git\android\app\src\main\AndroidManifest.xml:3:4-33:19
MERGED from [:share_plus] C:\Users\lch\StudioProjects\mobnetstat.git\build\share_plus\intermediates\library_manifest\debug\AndroidManifest.xml:7:5-17:19
MERGED from [:share_plus] C:\Users\lch\StudioProjects\mobnetstat.git\build\share_plus\intermediates\library_manifest\debug\AndroidManifest.xml:7:5-17:19
MERGED from [:url_launcher_android] C:\Users\lch\StudioProjects\mobnetstat.git\build\url_launcher_android\intermediates\library_manifest\debug\AndroidManifest.xml:7:5-12:19
MERGED from [:url_launcher_android] C:\Users\lch\StudioProjects\mobnetstat.git\build\url_launcher_android\intermediates\library_manifest\debug\AndroidManifest.xml:7:5-12:19
MERGED from [androidx.window:window:1.0.0-beta04] C:\Users\lch\.gradle\caches\transforms-2\files-2.1\e4e324fde2799cc82a9b6d2e3e16efc2\jetified-window-1.0.0-beta04\AndroidManifest.xml:24:5-31:19
MERGED from [androidx.window:window:1.0.0-beta04] C:\Users\lch\.gradle\caches\transforms-2\files-2.1\e4e324fde2799cc82a9b6d2e3e16efc2\jetified-window-1.0.0-beta04\AndroidManifest.xml:24:5-31:19
MERGED from [androidx.core:core:1.7.0] C:\Users\lch\.gradle\caches\transforms-2\files-2.1\e596bd84a87a4cbdcf9d545f7eacbd1e\core-1.7.0\AndroidManifest.xml:24:5-89
MERGED from [androidx.core:core:1.7.0] C:\Users\lch\.gradle\caches\transforms-2\files-2.1\e596bd84a87a4cbdcf9d545f7eacbd1e\core-1.7.0\AndroidManifest.xml:24:5-89
MERGED from [androidx.versionedparcelable:versionedparcelable:1.1.1] C:\Users\lch\.gradle\caches\transforms-2\files-2.1\cf37ac08cdad525e46b47ab5b0406817\versionedparcelable-1.1.1\AndroidManifest.xml:24:5-25:19
MERGED from [androidx.versionedparcelable:versionedparcelable:1.1.1] C:\Users\lch\.gradle\caches\transforms-2\files-2.1\cf37ac08cdad525e46b47ab5b0406817\versionedparcelable-1.1.1\AndroidManifest.xml:24:5-25:19
	android:appComponentFactory
		ADDED from [androidx.core:core:1.7.0] C:\Users\lch\.gradle\caches\transforms-2\files-2.1\e596bd84a87a4cbdcf9d545f7eacbd1e\core-1.7.0\AndroidManifest.xml:24:18-86
	android:name
		INJECTED from C:\Users\lch\StudioProjects\mobnetstat.git\android\app\src\main\AndroidManifest.xml
manifest
ADDED from C:\Users\lch\StudioProjects\mobnetstat.git\android\app\src\main\AndroidManifest.xml:1:1-40:12
INJECTED from C:\Users\lch\StudioProjects\mobnetstat.git\android\app\src\main\AndroidManifest.xml:1:1-40:12
INJECTED from C:\Users\lch\StudioProjects\mobnetstat.git\android\app\src\main\AndroidManifest.xml:1:1-40:12
INJECTED from C:\Users\lch\StudioProjects\mobnetstat.git\android\app\src\main\AndroidManifest.xml:1:1-40:12
MERGED from C:\Users\lch\StudioProjects\mobnetstat.git\android\app\src\main\AndroidManifest.xml:1:1-40:12
MERGED from [:share_plus] C:\Users\lch\StudioProjects\mobnetstat.git\build\share_plus\intermediates\library_manifest\debug\AndroidManifest.xml:2:1-19:12
MERGED from [:url_launcher_android] C:\Users\lch\StudioProjects\mobnetstat.git\build\url_launcher_android\intermediates\library_manifest\debug\AndroidManifest.xml:2:1-14:12
MERGED from [:device_info_plus] C:\Users\lch\StudioProjects\mobnetstat.git\build\device_info_plus\intermediates\library_manifest\debug\AndroidManifest.xml:2:1-7:12
MERGED from [:path_provider_android] C:\Users\lch\StudioProjects\mobnetstat.git\build\path_provider_android\intermediates\library_manifest\debug\AndroidManifest.xml:2:1-7:12
MERGED from [:connectivity_plus] C:\Users\lch\StudioProjects\mobnetstat.git\build\connectivity_plus\intermediates\library_manifest\debug\AndroidManifest.xml:2:1-9:12
MERGED from [androidx.core:core-ktx:1.7.0] C:\Users\lch\.gradle\caches\transforms-2\files-2.1\bac36abaa397e24c797fa6fd6ff183e0\jetified-core-ktx-1.7.0\AndroidManifest.xml:2:1-9:12
MERGED from [androidx.window:window-java:1.0.0-beta04] C:\Users\lch\.gradle\caches\transforms-2\files-2.1\5695d8d932d545af38bf66b725566d02\jetified-window-java-1.0.0-beta04\AndroidManifest.xml:17:1-23:12
MERGED from [androidx.window:window:1.0.0-beta04] C:\Users\lch\.gradle\caches\transforms-2\files-2.1\e4e324fde2799cc82a9b6d2e3e16efc2\jetified-window-1.0.0-beta04\AndroidManifest.xml:17:1-33:12
MERGED from [androidx.fragment:fragment:1.1.0] C:\Users\lch\.gradle\caches\transforms-2\files-2.1\ba80674a1a5fdce2b1b29eea5683af77\fragment-1.1.0\AndroidManifest.xml:17:1-24:12
MERGED from [androidx.tracing:tracing:1.0.0] C:\Users\lch\.gradle\caches\transforms-2\files-2.1\7c1a7b78a9eb87d9a948f050e96a4e5d\jetified-tracing-1.0.0\AndroidManifest.xml:17:1-24:12
MERGED from [androidx.viewpager:viewpager:1.0.0] C:\Users\lch\.gradle\caches\transforms-2\files-2.1\2f70304b103eacfab05dbe55739e869f\viewpager-1.0.0\AndroidManifest.xml:17:1-22:12
MERGED from [androidx.loader:loader:1.0.0] C:\Users\lch\.gradle\caches\transforms-2\files-2.1\49dee3543bc65746b6bba9f83aa0b18a\loader-1.0.0\AndroidManifest.xml:17:1-22:12
MERGED from [androidx.activity:activity:1.0.0] C:\Users\lch\.gradle\caches\transforms-2\files-2.1\68865d38a53fb5c240061f062e474515\jetified-activity-1.0.0\AndroidManifest.xml:17:1-24:12
MERGED from [androidx.customview:customview:1.0.0] C:\Users\lch\.gradle\caches\transforms-2\files-2.1\86cf751735e9e9dd0416cce35c4a71a1\customview-1.0.0\AndroidManifest.xml:17:1-22:12
MERGED from [androidx.core:core:1.7.0] C:\Users\lch\.gradle\caches\transforms-2\files-2.1\e596bd84a87a4cbdcf9d545f7eacbd1e\core-1.7.0\AndroidManifest.xml:17:1-26:12
MERGED from [androidx.versionedparcelable:versionedparcelable:1.1.1] C:\Users\lch\.gradle\caches\transforms-2\files-2.1\cf37ac08cdad525e46b47ab5b0406817\versionedparcelable-1.1.1\AndroidManifest.xml:17:1-27:12
MERGED from [androidx.lifecycle:lifecycle-runtime:2.3.1] C:\Users\lch\.gradle\caches\transforms-2\files-2.1\9611d01e277af0a0bee38db16de6184f\lifecycle-runtime-2.3.1\AndroidManifest.xml:17:1-24:12
MERGED from [androidx.lifecycle:lifecycle-viewmodel:2.1.0] C:\Users\lch\.gradle\caches\transforms-2\files-2.1\2b6a4e71d38d3b36d0c903aac26cfd25\lifecycle-viewmodel-2.1.0\AndroidManifest.xml:17:1-22:12
MERGED from [androidx.savedstate:savedstate:1.0.0] C:\Users\lch\.gradle\caches\transforms-2\files-2.1\29e9e6ac99026fff5bb21139b2ad74ac\jetified-savedstate-1.0.0\AndroidManifest.xml:17:1-24:12
MERGED from [androidx.lifecycle:lifecycle-livedata:2.0.0] C:\Users\lch\.gradle\caches\transforms-2\files-2.1\15faa7fdc535e832982b4615d300cb77\lifecycle-livedata-2.0.0\AndroidManifest.xml:17:1-22:12
MERGED from [androidx.lifecycle:lifecycle-livedata-core:2.0.0] C:\Users\lch\.gradle\caches\transforms-2\files-2.1\033c1099bb4cd11be9138377da501d59\lifecycle-livedata-core-2.0.0\AndroidManifest.xml:17:1-22:12
MERGED from [androidx.arch.core:core-runtime:2.1.0] C:\Users\lch\.gradle\caches\transforms-2\files-2.1\268ebc0b2bd661fb18fff0cceeca14c7\core-runtime-2.1.0\AndroidManifest.xml:17:1-24:12
MERGED from [androidx.annotation:annotation-experimental:1.1.0] C:\Users\lch\.gradle\caches\transforms-2\files-2.1\09be362b5b17ae2df23db8d40e6cc2f1\jetified-annotation-experimental-1.1.0\AndroidManifest.xml:17:1-24:12
INJECTED from C:\Users\lch\StudioProjects\mobnetstat.git\android\app\src\debug\AndroidManifest.xml:1:1-7:12
INJECTED from C:\Users\lch\StudioProjects\mobnetstat.git\android\app\src\debug\AndroidManifest.xml:1:1-7:12
INJECTED from C:\Users\lch\StudioProjects\mobnetstat.git\android\app\src\debug\AndroidManifest.xml:1:1-7:12
	package
		ADDED from C:\Users\lch\StudioProjects\mobnetstat.git\android\app\src\main\AndroidManifest.xml:2:5-37
		INJECTED from C:\Users\lch\StudioProjects\mobnetstat.git\android\app\src\main\AndroidManifest.xml
		INJECTED from C:\Users\lch\StudioProjects\mobnetstat.git\android\app\src\debug\AndroidManifest.xml
	android:versionName
		INJECTED from C:\Users\lch\StudioProjects\mobnetstat.git\android\app\src\main\AndroidManifest.xml
		ADDED from C:\Users\lch\StudioProjects\mobnetstat.git\android\app\src\main\AndroidManifest.xml:1:1-40:12
		INJECTED from C:\Users\lch\StudioProjects\mobnetstat.git\android\app\src\debug\AndroidManifest.xml
	android:versionCode
		INJECTED from C:\Users\lch\StudioProjects\mobnetstat.git\android\app\src\main\AndroidManifest.xml
		ADDED from C:\Users\lch\StudioProjects\mobnetstat.git\android\app\src\main\AndroidManifest.xml:1:1-40:12
		INJECTED from C:\Users\lch\StudioProjects\mobnetstat.git\android\app\src\debug\AndroidManifest.xml
	xmlns:android
		ADDED from C:\Users\lch\StudioProjects\mobnetstat.git\android\app\src\main\AndroidManifest.xml:1:11-69
uses-permission#android.permission.ACCESS_COARSE_LOCATION
ADDED from C:\Users\lch\StudioProjects\mobnetstat.git\android\app\src\main\AndroidManifest.xml:35:5-81
	android:name
		ADDED from C:\Users\lch\StudioProjects\mobnetstat.git\android\app\src\main\AndroidManifest.xml:35:22-78
uses-permission#android.permission.ACCESS_FINE_LOCATION
ADDED from C:\Users\lch\StudioProjects\mobnetstat.git\android\app\src\main\AndroidManifest.xml:36:5-79
	android:name
		ADDED from C:\Users\lch\StudioProjects\mobnetstat.git\android\app\src\main\AndroidManifest.xml:36:22-76
uses-permission#android.permission.WRITE_EXTERNAL_STORAGE
ADDED from C:\Users\lch\StudioProjects\mobnetstat.git\android\app\src\main\AndroidManifest.xml:37:5-80
	android:name
		ADDED from C:\Users\lch\StudioProjects\mobnetstat.git\android\app\src\main\AndroidManifest.xml:37:22-78
uses-permission#android.permission.READ_EXTERNAL_STORAGE
ADDED from C:\Users\lch\StudioProjects\mobnetstat.git\android\app\src\main\AndroidManifest.xml:38:5-79
	android:name
		ADDED from C:\Users\lch\StudioProjects\mobnetstat.git\android\app\src\main\AndroidManifest.xml:38:22-77
uses-sdk
INJECTED from C:\Users\lch\StudioProjects\mobnetstat.git\android\app\src\main\AndroidManifest.xml reason: use-sdk injection requested
INJECTED from C:\Users\lch\StudioProjects\mobnetstat.git\android\app\src\main\AndroidManifest.xml
INJECTED from C:\Users\lch\StudioProjects\mobnetstat.git\android\app\src\main\AndroidManifest.xml
MERGED from [:share_plus] C:\Users\lch\StudioProjects\mobnetstat.git\build\share_plus\intermediates\library_manifest\debug\AndroidManifest.xml:5:5-44
MERGED from [:share_plus] C:\Users\lch\StudioProjects\mobnetstat.git\build\share_plus\intermediates\library_manifest\debug\AndroidManifest.xml:5:5-44
MERGED from [:url_launcher_android] C:\Users\lch\StudioProjects\mobnetstat.git\build\url_launcher_android\intermediates\library_manifest\debug\AndroidManifest.xml:5:5-44
MERGED from [:url_launcher_android] C:\Users\lch\StudioProjects\mobnetstat.git\build\url_launcher_android\intermediates\library_manifest\debug\AndroidManifest.xml:5:5-44
MERGED from [:device_info_plus] C:\Users\lch\StudioProjects\mobnetstat.git\build\device_info_plus\intermediates\library_manifest\debug\AndroidManifest.xml:5:5-44
MERGED from [:device_info_plus] C:\Users\lch\StudioProjects\mobnetstat.git\build\device_info_plus\intermediates\library_manifest\debug\AndroidManifest.xml:5:5-44
MERGED from [:path_provider_android] C:\Users\lch\StudioProjects\mobnetstat.git\build\path_provider_android\intermediates\library_manifest\debug\AndroidManifest.xml:5:5-44
MERGED from [:path_provider_android] C:\Users\lch\StudioProjects\mobnetstat.git\build\path_provider_android\intermediates\library_manifest\debug\AndroidManifest.xml:5:5-44
MERGED from [:connectivity_plus] C:\Users\lch\StudioProjects\mobnetstat.git\build\connectivity_plus\intermediates\library_manifest\debug\AndroidManifest.xml:5:5-44
MERGED from [:connectivity_plus] C:\Users\lch\StudioProjects\mobnetstat.git\build\connectivity_plus\intermediates\library_manifest\debug\AndroidManifest.xml:5:5-44
MERGED from [androidx.core:core-ktx:1.7.0] C:\Users\lch\.gradle\caches\transforms-2\files-2.1\bac36abaa397e24c797fa6fd6ff183e0\jetified-core-ktx-1.7.0\AndroidManifest.xml:5:5-7:41
MERGED from [androidx.core:core-ktx:1.7.0] C:\Users\lch\.gradle\caches\transforms-2\files-2.1\bac36abaa397e24c797fa6fd6ff183e0\jetified-core-ktx-1.7.0\AndroidManifest.xml:5:5-7:41
MERGED from [androidx.window:window-java:1.0.0-beta04] C:\Users\lch\.gradle\caches\transforms-2\files-2.1\5695d8d932d545af38bf66b725566d02\jetified-window-java-1.0.0-beta04\AndroidManifest.xml:19:5-21:41
MERGED from [androidx.window:window-java:1.0.0-beta04] C:\Users\lch\.gradle\caches\transforms-2\files-2.1\5695d8d932d545af38bf66b725566d02\jetified-window-java-1.0.0-beta04\AndroidManifest.xml:19:5-21:41
MERGED from [androidx.window:window:1.0.0-beta04] C:\Users\lch\.gradle\caches\transforms-2\files-2.1\e4e324fde2799cc82a9b6d2e3e16efc2\jetified-window-1.0.0-beta04\AndroidManifest.xml:20:5-22:41
MERGED from [androidx.window:window:1.0.0-beta04] C:\Users\lch\.gradle\caches\transforms-2\files-2.1\e4e324fde2799cc82a9b6d2e3e16efc2\jetified-window-1.0.0-beta04\AndroidManifest.xml:20:5-22:41
MERGED from [androidx.fragment:fragment:1.1.0] C:\Users\lch\.gradle\caches\transforms-2\files-2.1\ba80674a1a5fdce2b1b29eea5683af77\fragment-1.1.0\AndroidManifest.xml:20:5-22:41
MERGED from [androidx.fragment:fragment:1.1.0] C:\Users\lch\.gradle\caches\transforms-2\files-2.1\ba80674a1a5fdce2b1b29eea5683af77\fragment-1.1.0\AndroidManifest.xml:20:5-22:41
MERGED from [androidx.tracing:tracing:1.0.0] C:\Users\lch\.gradle\caches\transforms-2\files-2.1\7c1a7b78a9eb87d9a948f050e96a4e5d\jetified-tracing-1.0.0\AndroidManifest.xml:20:5-22:41
MERGED from [androidx.tracing:tracing:1.0.0] C:\Users\lch\.gradle\caches\transforms-2\files-2.1\7c1a7b78a9eb87d9a948f050e96a4e5d\jetified-tracing-1.0.0\AndroidManifest.xml:20:5-22:41
MERGED from [androidx.viewpager:viewpager:1.0.0] C:\Users\lch\.gradle\caches\transforms-2\files-2.1\2f70304b103eacfab05dbe55739e869f\viewpager-1.0.0\AndroidManifest.xml:20:5-44
MERGED from [androidx.viewpager:viewpager:1.0.0] C:\Users\lch\.gradle\caches\transforms-2\files-2.1\2f70304b103eacfab05dbe55739e869f\viewpager-1.0.0\AndroidManifest.xml:20:5-44
MERGED from [androidx.loader:loader:1.0.0] C:\Users\lch\.gradle\caches\transforms-2\files-2.1\49dee3543bc65746b6bba9f83aa0b18a\loader-1.0.0\AndroidManifest.xml:20:5-44
MERGED from [androidx.loader:loader:1.0.0] C:\Users\lch\.gradle\caches\transforms-2\files-2.1\49dee3543bc65746b6bba9f83aa0b18a\loader-1.0.0\AndroidManifest.xml:20:5-44
MERGED from [androidx.activity:activity:1.0.0] C:\Users\lch\.gradle\caches\transforms-2\files-2.1\68865d38a53fb5c240061f062e474515\jetified-activity-1.0.0\AndroidManifest.xml:20:5-22:41
MERGED from [androidx.activity:activity:1.0.0] C:\Users\lch\.gradle\caches\transforms-2\files-2.1\68865d38a53fb5c240061f062e474515\jetified-activity-1.0.0\AndroidManifest.xml:20:5-22:41
MERGED from [androidx.customview:customview:1.0.0] C:\Users\lch\.gradle\caches\transforms-2\files-2.1\86cf751735e9e9dd0416cce35c4a71a1\customview-1.0.0\AndroidManifest.xml:20:5-44
MERGED from [androidx.customview:customview:1.0.0] C:\Users\lch\.gradle\caches\transforms-2\files-2.1\86cf751735e9e9dd0416cce35c4a71a1\customview-1.0.0\AndroidManifest.xml:20:5-44
MERGED from [androidx.core:core:1.7.0] C:\Users\lch\.gradle\caches\transforms-2\files-2.1\e596bd84a87a4cbdcf9d545f7eacbd1e\core-1.7.0\AndroidManifest.xml:20:5-22:41
MERGED from [androidx.core:core:1.7.0] C:\Users\lch\.gradle\caches\transforms-2\files-2.1\e596bd84a87a4cbdcf9d545f7eacbd1e\core-1.7.0\AndroidManifest.xml:20:5-22:41
MERGED from [androidx.versionedparcelable:versionedparcelable:1.1.1] C:\Users\lch\.gradle\caches\transforms-2\files-2.1\cf37ac08cdad525e46b47ab5b0406817\versionedparcelable-1.1.1\AndroidManifest.xml:20:5-22:41
MERGED from [androidx.versionedparcelable:versionedparcelable:1.1.1] C:\Users\lch\.gradle\caches\transforms-2\files-2.1\cf37ac08cdad525e46b47ab5b0406817\versionedparcelable-1.1.1\AndroidManifest.xml:20:5-22:41
MERGED from [androidx.lifecycle:lifecycle-runtime:2.3.1] C:\Users\lch\.gradle\caches\transforms-2\files-2.1\9611d01e277af0a0bee38db16de6184f\lifecycle-runtime-2.3.1\AndroidManifest.xml:20:5-22:41
MERGED from [androidx.lifecycle:lifecycle-runtime:2.3.1] C:\Users\lch\.gradle\caches\transforms-2\files-2.1\9611d01e277af0a0bee38db16de6184f\lifecycle-runtime-2.3.1\AndroidManifest.xml:20:5-22:41
MERGED from [androidx.lifecycle:lifecycle-viewmodel:2.1.0] C:\Users\lch\.gradle\caches\transforms-2\files-2.1\2b6a4e71d38d3b36d0c903aac26cfd25\lifecycle-viewmodel-2.1.0\AndroidManifest.xml:20:5-44
MERGED from [androidx.lifecycle:lifecycle-viewmodel:2.1.0] C:\Users\lch\.gradle\caches\transforms-2\files-2.1\2b6a4e71d38d3b36d0c903aac26cfd25\lifecycle-viewmodel-2.1.0\AndroidManifest.xml:20:5-44
MERGED from [androidx.savedstate:savedstate:1.0.0] C:\Users\lch\.gradle\caches\transforms-2\files-2.1\29e9e6ac99026fff5bb21139b2ad74ac\jetified-savedstate-1.0.0\AndroidManifest.xml:20:5-22:41
MERGED from [androidx.savedstate:savedstate:1.0.0] C:\Users\lch\.gradle\caches\transforms-2\files-2.1\29e9e6ac99026fff5bb21139b2ad74ac\jetified-savedstate-1.0.0\AndroidManifest.xml:20:5-22:41
MERGED from [androidx.lifecycle:lifecycle-livedata:2.0.0] C:\Users\lch\.gradle\caches\transforms-2\files-2.1\15faa7fdc535e832982b4615d300cb77\lifecycle-livedata-2.0.0\AndroidManifest.xml:20:5-44
MERGED from [androidx.lifecycle:lifecycle-livedata:2.0.0] C:\Users\lch\.gradle\caches\transforms-2\files-2.1\15faa7fdc535e832982b4615d300cb77\lifecycle-livedata-2.0.0\AndroidManifest.xml:20:5-44
MERGED from [androidx.lifecycle:lifecycle-livedata-core:2.0.0] C:\Users\lch\.gradle\caches\transforms-2\files-2.1\033c1099bb4cd11be9138377da501d59\lifecycle-livedata-core-2.0.0\AndroidManifest.xml:20:5-44
MERGED from [androidx.lifecycle:lifecycle-livedata-core:2.0.0] C:\Users\lch\.gradle\caches\transforms-2\files-2.1\033c1099bb4cd11be9138377da501d59\lifecycle-livedata-core-2.0.0\AndroidManifest.xml:20:5-44
MERGED from [androidx.arch.core:core-runtime:2.1.0] C:\Users\lch\.gradle\caches\transforms-2\files-2.1\268ebc0b2bd661fb18fff0cceeca14c7\core-runtime-2.1.0\AndroidManifest.xml:20:5-22:41
MERGED from [androidx.arch.core:core-runtime:2.1.0] C:\Users\lch\.gradle\caches\transforms-2\files-2.1\268ebc0b2bd661fb18fff0cceeca14c7\core-runtime-2.1.0\AndroidManifest.xml:20:5-22:41
MERGED from [androidx.annotation:annotation-experimental:1.1.0] C:\Users\lch\.gradle\caches\transforms-2\files-2.1\09be362b5b17ae2df23db8d40e6cc2f1\jetified-annotation-experimental-1.1.0\AndroidManifest.xml:20:5-22:41
MERGED from [androidx.annotation:annotation-experimental:1.1.0] C:\Users\lch\.gradle\caches\transforms-2\files-2.1\09be362b5b17ae2df23db8d40e6cc2f1\jetified-annotation-experimental-1.1.0\AndroidManifest.xml:20:5-22:41
INJECTED from C:\Users\lch\StudioProjects\mobnetstat.git\android\app\src\debug\AndroidManifest.xml
INJECTED from C:\Users\lch\StudioProjects\mobnetstat.git\android\app\src\debug\AndroidManifest.xml
	android:targetSdkVersion
		INJECTED from C:\Users\lch\StudioProjects\mobnetstat.git\android\app\src\main\AndroidManifest.xml
		INJECTED from C:\Users\lch\StudioProjects\mobnetstat.git\android\app\src\debug\AndroidManifest.xml
	android:minSdkVersion
		INJECTED from C:\Users\lch\StudioProjects\mobnetstat.git\android\app\src\main\AndroidManifest.xml
		INJECTED from C:\Users\lch\StudioProjects\mobnetstat.git\android\app\src\debug\AndroidManifest.xml
uses-permission#android.permission.INTERNET
ADDED from C:\Users\lch\StudioProjects\mobnetstat.git\android\app\src\debug\AndroidManifest.xml:6:5-66
	android:name
		ADDED from C:\Users\lch\StudioProjects\mobnetstat.git\android\app\src\debug\AndroidManifest.xml:6:22-64
provider#dev.fluttercommunity.plus.share.ShareFileProvider
ADDED from [:share_plus] C:\Users\lch\StudioProjects\mobnetstat.git\build\share_plus\intermediates\library_manifest\debug\AndroidManifest.xml:8:9-16:20
	android:grantUriPermissions
		ADDED from [:share_plus] C:\Users\lch\StudioProjects\mobnetstat.git\build\share_plus\intermediates\library_manifest\debug\AndroidManifest.xml:12:13-47
	android:authorities
		ADDED from [:share_plus] C:\Users\lch\StudioProjects\mobnetstat.git\build\share_plus\intermediates\library_manifest\debug\AndroidManifest.xml:10:13-74
	android:exported
		ADDED from [:share_plus] C:\Users\lch\StudioProjects\mobnetstat.git\build\share_plus\intermediates\library_manifest\debug\AndroidManifest.xml:11:13-37
	android:name
		ADDED from [:share_plus] C:\Users\lch\StudioProjects\mobnetstat.git\build\share_plus\intermediates\library_manifest\debug\AndroidManifest.xml:9:13-77
meta-data#android.support.FILE_PROVIDER_PATHS
ADDED from [:share_plus] C:\Users\lch\StudioProjects\mobnetstat.git\build\share_plus\intermediates\library_manifest\debug\AndroidManifest.xml:13:13-15:68
	android:resource
		ADDED from [:share_plus] C:\Users\lch\StudioProjects\mobnetstat.git\build\share_plus\intermediates\library_manifest\debug\AndroidManifest.xml:15:17-65
	android:name
		ADDED from [:share_plus] C:\Users\lch\StudioProjects\mobnetstat.git\build\share_plus\intermediates\library_manifest\debug\AndroidManifest.xml:14:17-67
activity#io.flutter.plugins.urllauncher.WebViewActivity
ADDED from [:url_launcher_android] C:\Users\lch\StudioProjects\mobnetstat.git\build\url_launcher_android\intermediates\library_manifest\debug\AndroidManifest.xml:8:9-11:74
	android:exported
		ADDED from [:url_launcher_android] C:\Users\lch\StudioProjects\mobnetstat.git\build\url_launcher_android\intermediates\library_manifest\debug\AndroidManifest.xml:10:13-37
	android:theme
		ADDED from [:url_launcher_android] C:\Users\lch\StudioProjects\mobnetstat.git\build\url_launcher_android\intermediates\library_manifest\debug\AndroidManifest.xml:11:13-71
	android:name
		ADDED from [:url_launcher_android] C:\Users\lch\StudioProjects\mobnetstat.git\build\url_launcher_android\intermediates\library_manifest\debug\AndroidManifest.xml:9:13-74
uses-permission#android.permission.ACCESS_NETWORK_STATE
ADDED from [:connectivity_plus] C:\Users\lch\StudioProjects\mobnetstat.git\build\connectivity_plus\intermediates\library_manifest\debug\AndroidManifest.xml:7:5-79
	android:name
		ADDED from [:connectivity_plus] C:\Users\lch\StudioProjects\mobnetstat.git\build\connectivity_plus\intermediates\library_manifest\debug\AndroidManifest.xml:7:22-76
uses-library#androidx.window.extensions
ADDED from [androidx.window:window:1.0.0-beta04] C:\Users\lch\.gradle\caches\transforms-2\files-2.1\e4e324fde2799cc82a9b6d2e3e16efc2\jetified-window-1.0.0-beta04\AndroidManifest.xml:25:9-27:40
	android:required
		ADDED from [androidx.window:window:1.0.0-beta04] C:\Users\lch\.gradle\caches\transforms-2\files-2.1\e4e324fde2799cc82a9b6d2e3e16efc2\jetified-window-1.0.0-beta04\AndroidManifest.xml:27:13-37
	android:name
		ADDED from [androidx.window:window:1.0.0-beta04] C:\Users\lch\.gradle\caches\transforms-2\files-2.1\e4e324fde2799cc82a9b6d2e3e16efc2\jetified-window-1.0.0-beta04\AndroidManifest.xml:26:13-54
uses-library#androidx.window.sidecar
ADDED from [androidx.window:window:1.0.0-beta04] C:\Users\lch\.gradle\caches\transforms-2\files-2.1\e4e324fde2799cc82a9b6d2e3e16efc2\jetified-window-1.0.0-beta04\AndroidManifest.xml:28:9-30:40
	android:required
		ADDED from [androidx.window:window:1.0.0-beta04] C:\Users\lch\.gradle\caches\transforms-2\files-2.1\e4e324fde2799cc82a9b6d2e3e16efc2\jetified-window-1.0.0-beta04\AndroidManifest.xml:30:13-37
	android:name
		ADDED from [androidx.window:window:1.0.0-beta04] C:\Users\lch\.gradle\caches\transforms-2\files-2.1\e4e324fde2799cc82a9b6d2e3e16efc2\jetified-window-1.0.0-beta04\AndroidManifest.xml:29:13-51
