{
  "ndk": "C:\\Users\\lch\\AppData\\Local\\Android\\sdk\\ndk\\21.1.6352462",
  "revision": {
    "mMajor": 21,
    "mMinor": 1,
    "mMicro": 6352462,
    "mPreview": 0,
    "mPrecision": "MICRO",
    "mPreviewSeparator": " "
  }
}